ts,p0,p1,p2,p3
4.6082740,,,,
4.7113840,,,,
4.7502780,,,,
4.7782090,,,,
4.8111160,,,,
4.8430290,,,,
4.8769390,,,,
4.9068610,,,,
4.9429030,,,,
4.9780640,,,,
5.0122930,,,,
5.0442210,,,,
5.0826270,,,,
5.1150740,,,,
5.1483600,,,,
5.1776610,,,,
5.2106400,,,,
5.2395560,,,,
5.2794500,,,,
5.3073930,,,,
5.3517980,,,,
5.3857070,,,,
5.4239930,,,,
5.4584080,,,,
5.5332070,,,,
5.5970370,,,,
5.6997610,,,,
5.7705720,,,,
5.8084720,,,,
5.8583440,,,,
5.8942410,,,,
5.9336520,,,,
5.9685580,,,,
6.0124440,,,,
6.0538610,,,,
6.0875050,,,,
6.1270930,,,,
6.1735100,,,,
6.2191150,,,,
6.2659920,,,,
6.3039730,,,,
6.3463790,,,,
6.3856850,,,,
6.4288760,,,,
6.4883560,,,,
6.5272470,,,,
6.5711390,,,,
6.6170760,,,,
6.6597310,,,,
6.6996250,,,,
6.7360390,,,,
6.7794400,,,,
6.8235430,,,,
6.8649930,,,,
6.9018860,,,,
6.9417790,,,,
6.9867530,,,,
7.0258300,,,,
7.0647290,,,,
7.1211260,,,,
7.1650080,,,,
7.2118840,,,,
7.2601090,,,,
7.3001150,,,,
7.3459950,,,,
7.3876150,,,,
7.4302880,,,,
7.4703590,,,,
7.5196230,,,,
7.5625090,,,,
7.6134040,,,,
7.6592770,,,,
7.7001680,,,,
7.7400730,,,,
7.7854600,,,,
7.8271430,,,,
7.8710260,,,,
7.9190320,,,,
7.9609160,,,,
7.9968500,,,,
8.0429230,,,,
8.0840940,,,,
8.1240180,,,,
8.1609110,,,,
8.2028030,,,,
8.2462100,,,,
8.2827780,,,,
8.3224640,,,,
8.3598810,,,,
8.4007730,,,,
8.4436670,,,,
8.4846320,,,,
8.5478030,,,,
8.6017640,,,,
8.6436510,,,,
8.6865370,,,,
8.7454970,,,,
8.7923700,,,,
8.8681640,,,,
8.9330830,,,,
8.9694930,,,,
9.0129020,,,,
9.6101370,,,,
9.6450440,,,,
9.6874530,,,,
9.7256730,,,,
9.7685570,,,,
9.8044630,,,,
9.8454200,,,,
9.8848030,,,,
9.9252050,,,,
9.9700840,,,,
10.0150320,,,,
10.0523760,,,,
10.0938020,,,,
10.1466940,,,,
10.1915730,,,,
10.2583940,,,,
10.2992840,,,,
10.3471640,,,,
10.3866870,,,,
10.4295710,,,,
10.4669850,,,,
10.5058810,,,,
10.5687110,,,,
10.6295530,,,,
10.6774210,,,,
10.7108280,,,,
10.7478190,,,,
10.8040250,,,,
10.8419220,,,,
10.8907970,,,,
10.9322000,,,,
10.9750890,,,,
11.0224410,,,,
11.0653210,,,,
11.1102030,,,,
11.1503950,,,,
11.1911090,,,,
11.2300050,,,,
11.2759330,,,,
11.3163310,,,,
11.3592050,,,,
11.3996120,,,,
11.4355140,,,,
11.4773840,,,,
11.5167910,,,,
11.5673290,,,,
11.6102150,,,,
11.6516190,,,,
11.6985990,,,,
11.7424900,,,,
11.7903600,,,,
11.8352390,,,,
11.8811160,,,,
11.9180180,,,,
11.9628980,,,,
11.9997990,,,,
12.0426850,,,,
12.0838940,,,,
12.1234890,,,,
12.1642110,,,,
12.7662090,,,,
12.8031110,,,,
12.8469840,,,,
12.8928600,,,,
12.9427270,,,,
12.9839090,,,,
13.0298660,,,,
13.0672810,,,,
13.1101670,,,,
13.1493460,,,,
13.1842530,,,,
13.2236640,,,,
13.2620800,,,,
13.3029700,,,,
13.3488520,,,,
13.3853010,,,,
13.4221980,,,,
13.4690740,,,,
13.5139690,,,,
13.5612310,,,,
13.6061300,,,,
13.6480020,,,,
13.6888930,,,,
13.7317770,,,,
13.7686780,,,,
13.8105670,,,,
13.8504590,,,,
13.8863630,,,,
13.9232650,,,,
13.9651530,,,,
14.0090460,,,,
14.0509230,,,,
14.0838360,,,,
14.1237300,,,,
14.1766510,,,,
14.2150900,,,,
14.2490030,,,,
14.2848140,,,,
14.3252130,,,,
14.3641080,,,,
14.4010080,,,,
14.4434100,,,,
14.4816970,,,,
14.5326870,,,,
14.5835510,,,,
14.6463820,,,,
14.6972460,,,,
14.7511030,,,,
14.7909960,,,,
14.8278990,,,,
14.8683010,,,,
14.9251880,,,,
14.9645450,,,,
15.0024650,,,,
15.0458980,,,,
15.0858030,,,,
15.1526250,,,,
15.2024910,,,,
15.2529540,,,,
15.2983430,,,,
15.3492070,,,,
15.3920920,,,,
15.4944800,,,,
15.5563240,,,,
15.6351050,,,,
15.7298540,,,,
15.8285910,,,,
15.9353160,,,,
16.0290520,,,,
16.1098550,,,,
16.2135630,,,,
16.2853650,,,,
16.3521880,,,,
16.4414920,,,,
16.5382400,,,,
16.6299870,,,,
16.7023570,,,,
16.8140510,,,,
16.9123240,,,,
16.9970930,,,,
17.0788730,,,,
17.1636470,,,,
17.8901340,,,,
17.9838820,,,,
18.0706500,,,,
18.1821300,,,,
18.2794000,,,,
18.3492080,,,,
18.4110920,,,,
18.4649480,,,,
18.5527130,,,,
18.6480750,,,,
18.7188840,,,,
18.8206110,,,,
18.9014210,,,,
18.9971790,,,,
19.0680200,,,,
19.1498110,,,,
19.2345740,,,,
19.3334240,,,,
19.4481160,,,,
19.5499370,,,,
19.6342940,,,,
19.7160760,,,,
19.8173210,,,,
19.9107080,,,,
19.9986010,,,,
20.0819340,,,,
20.1662860,,,,
20.2165980,,,,
20.2554800,,,,
20.2983640,,,,
20.3412520,,,,
20.3824110,,,,
20.4253100,,,,
20.4649070,,,,
20.5018030,,,,
20.5606600,,,,
20.6174950,,,,
20.6898230,,,,
20.7546570,,,,
20.8000470,,,,
20.8519090,,,,
20.9212370,,,,
20.9901280,,,,
21.0489740,,,,
21.1646600,,,,
21.2679850,,,,
21.3527590,,,,
21.4311800,,,,
21.5299160,,,,
21.6166840,,,,
21.6984650,,,,
21.7942590,,,,
21.8570900,,,,
21.9912710,,,,
22.0650690,,,,
22.1418660,,,,
22.2356120,,,,
22.3323550,,,,
22.4201220,,,,
22.5248470,,,,
22.6216440,,,,
22.6964440,,,,
22.7692500,,,,
22.8340800,,,,
22.9288230,,,,
23.0006310,,,,
23.0844070,,,,
23.1552160,,,,
23.2290190,,,,
23.3118020,,,,
23.3856030,,,,
23.4639360,,,,
23.5482490,,,,
23.6180540,,,,
23.6948500,,,,
23.7746390,,,,
23.8509760,,,,
23.9467230,,,,
24.0314930,,,,
24.1142730,,,,
24.2269710,,,,
24.3247090,,,,
24.4054930,,,,
24.4812900,,,,
24.5680570,,,,
24.6598110,,,,
24.7356080,,,,
24.8024300,,,,
24.8827770,,,,
24.9441630,,,,
25.0149750,,,,
25.1127140,,,,
25.1855150,,,,
25.2682920,,,,
25.3680310,,,,
25.4268690,,,,
25.5186250,,,,
25.5894350,,,,
25.6642340,,,,
25.7320510,,,,
25.8293170,,,,
25.8901550,,,,
25.9664780,,,,
26.0303070,,,,
26.0781950,,,,
26.1160850,,,,
26.1560300,,,,
26.1989870,,,,
26.2334110,,,,
26.2772920,,,,
26.3161890,,,,
26.3570790,,,,
26.3939800,,,,
26.4308810,,,,
26.4667890,,,,
26.5116660,,,,
26.5626330,,,,
26.5995360,,,,
26.6374360,,,,
26.6723400,,,,
26.7072480,,,,
26.7421520,,,,
26.7790550,,,,
26.8147100,,,,
26.8496150,,,,
26.8885130,,,,
26.9388900,,,,
26.9767890,,,,
27.0156840,,,,
27.0545810,,,,
27.0954710,,,,
27.1333700,,,,
27.1712720,,,,
27.2061750,,,,
27.2440730,,,,
27.2789800,,,,
27.8847590,,,,
27.9281620,,,,
27.9740400,,,,
28.0169240,,,,
28.0593250,,,,
28.0982200,,,,
28.1461310,,,,
28.1959990,,,,
28.2638190,,,,
28.3251660,,,,
28.3720380,,,,
28.4149230,,,,
28.4617980,,,,
28.5056870,,,,
28.5575420,,,,
28.6213700,,,,
28.6632590,,,,
28.7141320,,,,
28.7650220,,,,
28.8189340,,,,
28.8667930,,,,
28.9221960,,,,
28.9751550,,,,
29.0230250,,,,
29.0664270,,,,
29.1212810,,,,
29.1727010,,,,
29.2145730,,,,
29.2743110,,,,
29.3231010,,,,
29.3735810,,,,
29.4224460,,,,
29.4670690,,,,
29.5169440,,,,
29.5837520,,,,
29.6311450,,,,
29.6800100,,,,
29.7278810,,,,
29.7747570,,,,
29.8289180,,,,
29.8758460,,,,
29.9262260,,,,
29.9761420,,,,
30.0235160,,,,
30.0743810,,,,
30.1165810,,,,
30.1604630,,,,
30.2093340,,,,
30.2571600,,,,
30.3015880,,,,
30.3454700,,,,
30.3976540,,,,
30.4415210,,,,
30.4839490,,,,
30.5398000,,,,
30.5947940,,,,
30.6453160,,,,
30.6891970,,,,
30.7420580,,,,
30.7897630,,,,
30.8397500,,,,
30.8846420,,,,
30.9414790,,,,
30.9941630,,,,
31.0330580,,,,
31.0741850,,,,
31.1225110,,,,
31.1699890,,,,
31.2208450,,,,
31.2737050,,,,
31.3155920,,,,
31.3554860,,,,
31.3973740,,,,
31.4332780,,,,
31.4761630,,,,
31.5184330,,,,
31.5642990,,,,
31.6002030,,,,
31.6381020,,,,
31.7248760,,,,
31.8026620,,,,
31.8565180,,,,
31.8964240,,,,
31.9353260,,,,
31.9797190,,,,
32.0265820,,,,
32.0734500,,,,
32.1156260,,,,
32.1600050,,,,
32.2068810,,,,
32.2490190,,,,
32.2948910,,,,
32.3906360,,,,
32.4408160,,,,
32.4823820,,,,
32.5282570,,,,
32.5912640,,,,
32.6291530,,,,
32.6660630,,,,
32.7175230,,,,
32.7634000,,,,
32.8068040,,,,
32.8548940,,,,
32.8937900,,,,
32.9336840,,,,
32.9769680,,,,
33.0217280,,,,
33.0651120,,,,
33.1068820,,,,
33.1543970,,,,
33.1883110,,,,
33.2267240,,,,
33.2641530,,,,
33.3074740,,,,
33.3496900,,,,
33.3885980,,,,
33.4404480,,,,
33.4948200,,,,
33.5397020,,,,
33.5891050,,,,
33.6309920,,,,
33.6724120,,,,
33.7153600,,,,
33.7597790,,,,
33.7996610,,,,
33.8489890,,,,
33.8898820,,,,
33.9302920,,,,
33.9752290,,,,
34.0191610,,,,
34.0618930,,,,
34.1023040,,,,
34.1473240,,,,
34.1899910,,,,
34.2313910,,,,
34.2742760,,,,
34.3143800,,,,
34.3552710,,,,
34.3911740,,,,
34.4320650,,,,
34.4729570,,,,
34.5138850,,,,
34.5637500,,,,
34.6086420,,,,
34.6559730,,,,
34.6988570,,,,
34.7447660,,,,
34.7899200,,,,
34.8407830,,,,
34.8856230,,,,
34.9334940,,,,
35.0082980,,,,
35.0611520,,,,
35.1000640,,,,
35.1404820,,,,
35.1796800,,,,
35.2206100,,,,
35.2640000,,,,
35.3078830,,,,
35.3610850,,,,
35.4075420,,,,
35.4470740,,,,
35.4834890,,,,
35.6059880,,111.2371795,106.6858974,95.3397436
35.6488880,,98.7318841,88.2228261,82.8442029
35.7122500,,90.9579832,76.4016807,87.9579832
35.8970420,,61.5131313,77.0156566,107.2636364
35.9628680,,61.5684848,66.0687879,96.8772727
36.0092530,,71.4290162,74.3819012,97.3347862
36.0546980,,85.2483721,83.8013953,106.6742636
36.0985810,,100.0424792,97.1066948,111.9360328
36.1494450,,108.7166940,107.3055282,124.1715380
36.2188160,,107.9936673,106.4046314,124.1014178
36.2820260,,105.2367116,104.6021749,123.3557199
36.3220760,,102.0702013,101.7142039,120.5711013
36.3614910,,101.5187921,100.9081906,120.0332007
36.3993970,,102.0320251,101.3640502,121.0686813
36.4453380,,102.8860575,102.2561218,121.7777778
36.4877810,,103.9573881,103.8667164,122.8778358
36.5506170,,105.7590370,105.9205185,124.8570370
36.5944960,,104.9883645,104.2525837,118.1669437
36.6440660,,104.0889842,108.4005182,124.1485750
36.6872390,,104.1167763,108.8438322,125.6515625
36.7301250,,103.2523191,107.1348176,119.4276438
36.7660280,,105.6407458,107.2810580,119.4706945
36.8149080,,108.7437261,107.3979815,119.5146618
36.8553150,,112.5711247,108.2862391,119.8890106
36.8972100,,118.1573987,110.8742433,122.7926730
36.9410940,,126.3041441,116.3801201,129.0165165
36.9874620,,133.7896168,121.1336921,135.0564096
37.0308600,,138.1803097,123.3429204,141.4382278
37.0757400,,142.9712972,126.0607243,146.7419655
37.1226280,,148.2845939,129.3232834,151.0015104
37.1590450,,153.9507733,133.3224838,155.3111150
37.1989400,,159.7862789,137.2576510,159.9937324
37.2393530,,165.4311443,141.4523391,165.5346475
37.2872420,,170.5665598,145.3751603,169.0797543
37.3281410,,175.1700535,149.2638655,173.3189712
37.3730130,,179.3954789,152.8613515,177.6091395
37.4180450,,182.7834631,155.6981832,180.2233964
37.4614430,,185.5595014,157.8874092,182.2428930
37.5053250,,188.1282552,159.7328559,184.6867622
37.5506540,,190.0407734,161.2478352,186.2799075
37.5985240,,191.3452987,162.1314173,186.9150295
37.6494330,,193.1713160,163.8283294,188.3742317
37.6958130,,194.6686666,165.0314518,189.6803608
37.7396940,,196.0492101,166.0416080,191.2296596
37.7887200,,196.3161249,166.4519207,190.9278540
37.8306080,,193.4819231,163.4298252,187.6222378
37.8734940,,193.8340411,163.5806353,188.1520639
37.9175010,,193.0733712,162.9104243,187.3698630
37.9604440,,190.6255386,159.3019976,171.7359642
37.9993390,,188.4802233,157.4778309,169.7207337
38.0386600,,186.8248817,156.1138127,167.9326395
38.0786800,,184.3409204,154.2760352,166.3241145
38.1192580,,181.0617552,151.5125372,164.0596140
38.1587150,,180.0069496,150.6017729,163.5929701
38.2090310,,179.1664412,150.1301033,163.1565728
38.2517850,,179.3308752,150.3601591,163.5001836
38.3061510,,178.8387549,150.0449561,163.5080105
38.3482130,,178.9748060,150.2005215,163.7153772
38.3873880,,179.2275773,150.3686927,163.8670027
38.4275040,,179.8135064,150.8691721,164.8451694
38.4654040,,180.2206041,151.4026316,164.7818481
38.5146760,,180.1754946,151.7148138,165.6300535
38.5754910,,180.6574308,152.4164071,166.4974731
38.6201000,,181.7805572,153.1824340,167.1463636
38.6610800,,182.3673951,153.9793124,168.2490967
38.7019780,,183.3030689,154.6121598,169.7151419
38.7458600,,183.5111117,154.8444642,169.5119136
38.7882640,,182.9714148,154.7385688,169.3710975
38.8361880,,182.5987668,154.3780269,169.1595011
38.8710850,,182.1306012,154.0940827,168.8757764
38.9119750,,181.7610974,153.7905350,168.0472702
38.9514940,,181.6020977,153.4696548,168.1910303
38.9923880,,180.9339751,153.0868005,167.6122532
39.0403020,,180.3163039,152.4777994,167.1660710
39.0801440,,179.4705629,151.7017544,166.4168281
39.1265260,,178.5646583,151.0624213,165.5111849
39.1729160,,177.7697572,150.3135052,164.7457131
39.2152050,,177.0589123,149.6001853,163.7044594
39.2563620,,176.8217547,149.4169379,163.6462353
39.2972490,,176.2233992,148.9370224,163.5134651
39.3391370,,175.0516763,148.0481142,162.5400210
39.3815780,,174.7006286,147.8017810,162.1218177
39.4264870,,174.5415139,147.6335516,161.5369041
39.4713770,,174.2940545,147.5380304,161.4313515
39.5264850,,174.1464379,147.2594290,161.9237035
39.5818840,,173.9323468,146.9629387,161.1608172
39.6247700,,173.6786276,146.6581718,161.4397852
39.6646630,,173.3474332,146.3372708,160.9424044
39.7129260,,173.0721320,146.0248559,160.3860136
39.7558120,,172.5744631,145.6272132,159.8967260
39.7957040,,172.4249607,145.4516239,159.7404662
39.8388270,,172.2988999,145.3850969,159.5574646
39.8812320,,172.3939601,145.4076393,159.7868417
39.9221220,,172.3263008,145.3115694,159.2897880
39.9630120,,172.1255327,145.1992687,159.1992424
40.0055860,,172.0388541,145.1534435,159.0974904
40.0477830,,172.0388541,145.1534435,159.0974904
40.0871880,,171.9821645,145.0939128,159.2751092
40.1410440,,172.0283317,144.9961856,159.5729994
40.2168430,,172.2453307,145.0730783,159.8834377
40.2597270,,172.3436366,145.2237334,159.6993476
40.2945320,,172.2143574,145.2418622,159.2858804
40.3324380,,171.8005735,144.6772505,158.4041932
40.3725590,,171.2958910,144.1802231,158.2301257
40.4133920,,171.2958910,144.1802231,158.2301257
40.4592980,,170.6127396,143.5353137,157.6364563
40.4991910,,169.8744022,142.9169526,157.1833021
40.5580380,,169.3988011,142.4199116,156.2146973
40.6004400,,168.9740303,141.8132032,156.0617005
40.6517080,,168.4503836,141.3895908,155.4596419
40.6945930,,168.2829896,141.1921823,155.1737204
40.7314940,,168.4111790,141.1210084,155.8585943
40.7714000,,168.6081996,141.3625923,155.5693150
40.8128800,,168.7354214,141.4874714,155.0986504
40.8473140,,168.8300993,141.4859435,155.1231220
40.8866730,,168.3216785,141.1793103,155.1970335
40.9375380,,168.0384246,140.7973996,154.8968190
40.9779340,,146.0923536,123.4405989,137.5335136
41.0293100,,146.2940115,123.1508967,136.7965883
41.0737040,,148.7475657,124.8838063,137.9835980
41.1147360,,151.1011786,126.6544002,140.0540859
41.1636100,,153.7841107,128.5230830,141.6081159
41.2049460,,156.2821120,130.2702631,143.5540260
41.2459000,,157.6957077,131.2864522,143.9021195
41.2874910,,158.6437054,132.0344552,145.0138460
41.3393490,,159.4295985,132.6359037,145.1904622
41.3793070,,159.8042124,133.0856854,146.2827511
41.4231440,,160.7785517,133.8160313,146.7572535
41.4646910,,161.1217660,134.1983092,146.9610843
41.5217160,,161.6851472,134.6903322,147.7017553
41.5766910,,161.5516608,134.3386443,147.3273562
41.6135910,,161.5516608,134.3386443,147.3273562
41.6584710,,161.2161761,134.2270861,146.8638131
41.7073470,,161.6102417,134.2415851,147.4509208
41.7484090,,161.8970138,134.4434349,146.9957417
41.7902970,,162.4873597,134.6210908,147.8659420
41.8391660,,162.9746080,134.8958601,148.3132678
41.8801090,,163.1321039,135.0340931,147.8138014
41.9254960,,163.0881605,135.0198922,147.9424029
41.9623980,,163.0881605,135.0198922,147.9424029
41.9983030,,163.2820478,135.1007470,147.7195939
42.0461900,,163.4174351,135.2294306,147.9018524
42.0866210,,163.6797548,135.3299860,148.2149287
42.1295070,,163.7650149,135.4502148,148.2665335
42.1772970,,163.9576983,135.5509891,148.7431527
42.2202190,,164.0429310,135.7372972,148.5707719
42.2798210,,164.0070047,136.0647659,148.6596164
42.3208630,,164.2804608,136.1471256,148.8789778
42.3587610,,164.5766547,136.2768764,149.0658057
42.3961750,,164.7120420,136.4816538,149.4281610
42.4390610,,164.8113662,136.5572277,149.5107396
42.4836110,,164.8882535,136.4805319,149.4032616
42.5240170,,165.0331354,136.5707172,149.0979013
42.5838580,,165.2915424,136.4363970,149.6679892
42.6197610,,165.1731469,136.5741648,149.3763920
42.6771450,,164.5915049,135.9501006,148.8236254
42.7140340,,164.5875619,135.8972644,149.0683363
42.7524510,,164.6722685,135.9689183,148.7966226
42.7938570,,164.7185783,136.1651982,148.8583510
42.8387370,,164.7140371,136.1565508,149.1936151
42.8832640,,164.8435579,136.1496710,149.1757492
42.9271340,,164.6270463,136.2600207,149.0466634
42.9660360,,164.7003861,136.1651439,149.3366509
43.0139570,,164.7672268,136.2460978,148.9419427
43.0618210,,165.1172566,136.5517590,149.2993008
43.1036020,,165.1163280,136.5988474,149.3826614
43.1487280,,165.0422539,136.7873375,149.1728668
43.1856700,,165.0691030,136.8018682,149.2401672
43.2275580,,165.2486343,136.8563313,149.8959631
43.2694470,,165.1817437,136.9914782,149.9602316
43.3065490,,165.2921173,136.8932864,149.9021359
43.3518430,,165.1027805,136.8539550,149.3294821
43.3917390,,165.0638588,136.6171474,149.6418934
43.4316380,,165.0492735,136.5883044,149.2160494
43.4722760,,164.9948104,136.3562220,148.6213537
43.5151910,,164.7454387,136.1701355,149.2686005
43.5741860,,164.7889490,136.1322244,148.8656725
43.6131370,,164.5581776,136.0494647,149.0016934
43.6580140,,164.8165629,136.1450344,148.5186005
43.6939180,,164.8165629,136.1450344,148.5186005
43.7416340,,165.5455418,136.6616187,149.0619204
43.7815450,,165.3349246,136.4621399,149.1017010
43.8204220,,165.1835391,136.2428258,148.6924280
43.8698450,,164.2070620,135.5306612,148.0873892
43.9092120,,164.0455624,135.5007771,147.8705930
43.9500950,,164.1030675,135.3999727,147.7552829
43.9845200,,164.5731687,135.9308093,147.7970370
44.0334000,,164.5731687,135.9308093,147.7970370
44.0748400,,164.1391770,135.7222222,147.7824966
44.1173590,,163.4724005,135.0993690,147.9833471
44.1558060,,162.8158829,134.8204026,146.9805346
44.1937050,,161.4063727,133.5205136,145.9727042
44.2316110,,158.5624791,131.4367701,144.1685018
44.2846200,,153.3837774,127.6073404,140.9452265
44.3225200,,153.6350168,127.7604658,141.0625421
44.3604170,,151.7028017,126.1239641,139.4090986
44.4112820,,149.5469759,124.6297995,138.2762204
44.4796130,,147.5577744,122.9932867,136.6006713
44.5324850,,146.2712893,121.9944854,135.6087537
44.5873240,,144.7887610,120.6960643,135.1515410
44.6272160,,143.0725727,119.5472971,134.0395851
44.6677940,,142.4759091,118.7650908,133.2507689
44.7162020,,142.1484564,118.5642077,132.4822079
44.7691970,,142.1892327,118.4481745,133.3284653
44.8096030,,142.7398855,118.7299352,133.1421196
44.8490610,,143.2168038,118.9560127,133.1122468
44.8914630,,143.0051011,118.7591473,132.7721519
44.9363430,,142.8053089,118.8415832,132.5800428
44.9876520,,143.3306398,118.9770257,132.9009728
45.0456510,,143.6037441,119.3461857,133.0536102
45.1027490,,144.0554004,119.5842080,133.9689295
45.1546900,,144.3608257,119.8937456,133.8289397
45.2049240,,144.8430722,119.9784411,134.2002081
45.2551540,,145.0921707,120.2241752,134.0225844
45.3125570,,145.5469342,120.5003460,134.2122500
45.3594300,,146.0214262,120.8736318,135.0517081
45.4562060,,146.6052957,121.3609803,135.0063107
45.5221770,,146.7220608,121.4679622,134.9879462
45.6092450,,146.8919830,121.4983806,135.1534943
45.6901960,,147.0254433,121.7361848,135.7101072
45.7552060,,147.2252830,121.8778924,135.6005877
45.8832210,,147.2645163,121.6840629,135.6283682
45.9452200,,147.5618865,121.9841670,135.9605688
46.0393480,,147.7452703,122.2927027,135.6788514
46.1424290,,147.3977410,122.1512034,136.0149590
46.2407250,,147.9912838,122.5132432,136.2312838
46.3474700,,148.7175170,123.0713946,136.5134014
46.4393570,,149.2769521,123.5140411,136.9655479
46.5236500,,149.3623288,123.4558562,136.8297260
46.6114080,,147.9826040,122.4018005,135.6920500
46.7094930,,147.5583985,122.0088672,135.4286730
46.7985490,,146.9561038,121.4855992,135.1164585
46.8729070,,146.5220496,121.2803330,134.9760720
46.9752120,,146.4054557,121.0932751,135.2208684
47.0520090,,146.6026669,121.2184655,134.6772600
47.1280490,,146.6026669,121.2184655,134.6772600
47.2208010,,146.7510746,121.3279521,134.9193488
47.3031450,,147.1763631,121.4931804,135.3045995
47.3918950,,147.3949301,121.6675466,135.7503300
47.4766690,,147.1295563,121.7325617,135.0958811
47.5664320,,147.1221105,121.7538498,135.0455545
47.6537960,,148.7760274,122.8955479,136.8067123
47.7166270,,148.8840068,123.0800685,136.1034247
47.7909450,,148.7294178,123.0516781,136.2482877
47.8727280,,148.3727595,122.7111702,135.9015539
47.9500360,,148.1659170,122.7596265,135.8945001
48.0393230,,148.3844135,122.7011518,136.4866762
48.1176440,,148.0259320,122.7272541,136.3206229
48.2084030,,147.9800314,122.6032509,135.9296667
48.2752230,,148.2837329,122.8484247,135.6604795
48.3420450,,148.4341781,122.7296918,136.2885274
48.4228270,,148.3916096,122.8655822,135.7593151
48.5046120,,148.2681456,122.6063859,135.5669938
48.5843970,,148.4899816,122.5726845,135.9839160
48.6591940,,148.4057452,122.6973012,135.7381244
48.7235600,,148.0897908,122.5248075,136.0270224
48.8212990,,148.0732979,122.3443059,135.8824712
48.9449660,,148.0150276,122.4491242,135.6170517
49.0203130,,148.2762557,122.4926055,135.7696108
49.0991010,,148.4551217,122.7155319,136.1832277
49.1639270,,148.5908131,122.8556532,136.0616098
49.2317480,,148.3196347,122.8256662,136.0474341
49.3185160,,147.9752266,122.6209023,136.4164792
49.3933130,,148.0018836,122.5966781,135.6936644
49.4721320,,147.7379452,122.4205822,135.7626712
49.5419230,,147.3692156,122.3337422,135.0527499
49.6217030,,147.3504737,122.3206570,135.2582976
49.6935110,,147.6080556,122.3074695,135.8793021
49.7593500,,147.5545219,122.1483337,135.4193416
49.8431110,,147.0539468,121.9809440,135.1952394
49.9374160,,147.0916859,121.7736674,135.1980537
49.9942590,,146.9430015,121.6047742,134.4919639
50.0481160,,146.4967609,121.0760510,134.3776233
50.1014170,,146.2606789,120.9342061,134.2958364
50.1363280,,146.2570349,120.8144274,133.9412578
50.1668930,,146.2570349,120.8144274,133.9412578
50.2005950,,145.9395033,120.7222822,133.9390310
50.2345180,,145.8992172,120.4877522,133.9837371
50.2753950,,145.5315811,120.2902018,133.8934813
50.3073080,,145.3261691,120.1405291,134.2438424
50.3392320,,145.4254459,120.3899439,133.5808731
50.3671510,,145.1173773,120.2998811,133.9251232
50.3980900,,144.8696110,120.1543740,133.9543401
50.4309860,,144.8696110,120.1543740,133.9543401
50.4669040,,144.8524546,120.1111262,133.7282487
50.5008140,,144.6411755,119.9696280,133.2149142
50.5476880,,144.5028368,119.7471717,133.7413284
50.6085240,,143.9540683,119.4613216,132.7325293
50.6494150,,143.6660438,118.8264651,132.2596569
50.6863160,,143.7998768,119.1050561,133.0363985
50.7192280,,143.8890599,119.0612343,132.9619253
50.7491490,,143.8890599,119.0612343,132.9619253
50.7810730,,143.9474548,119.3094212,132.3336070
50.8119950,,143.8645320,119.2970375,133.2293377
50.8493950,,143.9732485,119.1312945,133.0527504
50.8852970,,143.5660577,119.0707102,132.3978859
50.9252210,,142.9934319,118.8275862,132.2233169
50.9593780,,142.8321360,118.5036604,132.0429666
50.9952890,,142.4054461,118.4511494,132.2667282
51.0326670,,143.0288029,119.1468531,132.8905698
51.0668940,,143.5598581,119.4117872,132.9296524
51.1002050,,143.7327697,119.5057579,133.2231848
51.1330880,,144.0923077,119.8783566,133.2807692
51.1716160,,144.1996154,119.7574476,133.2235664
51.2078070,,144.3779386,120.1330780,132.4684260
51.2422560,,144.5338702,119.9868616,133.5202020
51.2821490,,145.0734968,120.5471509,134.1985773
51.3270570,,144.6307905,119.9648575,133.7018920
51.3659530,,144.7567711,119.9943204,133.5656526
51.3995300,,144.9604558,120.3964006,133.6707607
51.4334390,,145.2764190,120.5744915,133.9304959
51.4663530,,145.5109155,120.7072521,133.7164105
51.4987840,,145.5405559,120.7521920,134.2488020
51.5466540,,145.1169275,120.3833545,133.7526086
51.5975280,,145.4400733,120.6977228,133.8173999
51.6334260,,145.7685773,121.0738508,134.7063593
51.6704590,,146.6885575,121.7302242,135.1618725
51.7058780,,147.9905527,122.6152002,135.4539270
51.7413030,,148.8097179,123.0917799,136.4394984
51.7772140,,150.7474399,124.8997562,138.3057471
51.8240820,,152.8932960,126.5718887,139.4903553
51.8714280,,154.6379662,128.0729768,140.5366995
51.9083280,,156.4052697,129.1033422,142.2030416
51.9487340,,157.6693899,130.2314058,142.8259947
51.9946140,,159.1498497,131.3754200,143.9026348
52.0318610,,161.3810878,132.9865979,145.5994312
52.0787600,,162.9748541,134.3574536,146.6259947
52.1326250,,165.4563645,136.3877792,149.4219645
52.1726370,,167.5744049,138.4292184,151.4427697
52.2095380,,169.9871386,140.8071905,154.0664196
52.2454420,,173.0327573,143.5048003,157.4152074
52.2893250,,174.5823800,145.2307662,159.8109840
52.3227530,,176.5701818,146.8956682,161.7590279
52.3566600,,177.9528418,148.2759780,162.9973755
52.3915660,,179.6481575,149.9508114,164.8040906
52.4264840,,181.0482998,151.0802686,166.8497293
52.4679930,,182.7262937,152.8111091,168.5598802
52.5078900,,183.5767201,153.7240171,168.7734802
52.5497900,,185.0775697,154.7891935,169.6464297
52.5886750,,185.9736766,155.6179996,170.4004603
52.6245890,,186.4693548,155.8202835,170.4634897
52.6584890,,186.2270252,155.6006635,169.3313032
52.6914010,,186.1679209,155.1805137,169.0610074
52.7263070,,185.7611857,154.9616128,168.8204698
52.7711870,,185.0548341,154.3890435,167.5551948
52.8110930,,184.9149425,154.0216823,167.2426332
52.8459880,,185.4086905,154.2215876,167.3056104
52.8808950,,188.3454446,156.8769231,166.5771959
52.9207960,,189.4224128,157.5069729,164.8136137
52.9552160,,188.8617057,157.0256968,164.0559086
52.9931100,,188.3277934,156.6031443,163.5477260
53.0290200,,187.8868213,156.3329751,163.0792421
53.0674460,,187.5277493,155.9345869,162.7498575
53.1027140,,187.1536752,155.8674074,163.1279202
53.1423770,,186.8243972,155.5007463,162.1653272
53.1752890,,186.7988519,155.3551091,162.3567164
53.2121910,,186.5280138,155.3175660,161.4818599
53.2472370,,186.3132606,155.2069460,162.2448335
53.2811460,,186.4481630,155.3248565,162.4929966
53.3195590,,186.8926521,155.6482204,162.5950631
53.3534680,,186.5464851,155.2104364,162.2582317
53.3862150,,185.7664422,154.5338384,161.3229517
53.4191280,,185.2808044,153.9944296,161.1598151
53.4480560,,184.7518801,153.6864632,161.2082504
53.4799630,,184.4989100,153.6022455,161.1699368
53.5218520,,182.6602192,152.0232108,162.5528691
53.5662580,,180.6252668,150.7209240,162.0155783
53.6042370,,178.4210004,149.1328843,162.1871345
53.6381520,,177.4042873,148.5858960,162.8150356
53.6710590,,175.6975867,147.1883956,162.0711727
53.6999810,,172.9226753,145.4663786,160.2516428
53.7383900,,169.8523666,143.1083907,157.5930723
53.7713000,,166.4630252,140.8256397,155.8900917
53.8052100,,161.6499396,137.2315091,152.4868008
53.8411140,,155.5869438,132.7025042,147.6498418
53.8750230,,147.8967820,127.0969566,142.0774135
53.9089400,,139.5692992,120.6440489,136.0319614
53.9458350,,130.7153729,113.8777633,128.8733783
53.9802920,,122.4807789,107.4580793,122.4680485
54.0391360,,115.3250901,101.8026316,116.7783706
54.0919930,,119.1073678,104.5479610,119.1863010
54.1458500,,114.4495616,100.9659500,114.3626542
54.1870870,,112.3640188,98.9896144,112.6753276
54.2199990,,112.3572360,98.7909761,111.8314150
54.2484370,,109.7669914,96.6147953,109.9363951
54.2819660,,111.1947423,97.3954465,111.6691741
54.3198670,,114.1202026,100.1627153,116.2983992
54.3532890,,117.5524536,102.6297298,118.3613332
54.3981720,,121.1536228,105.3041350,120.7965659
54.4324750,,125.7122414,109.0007554,124.2702170
54.4677800,,128.3187340,111.9263901,136.7812660
54.4986970,,130.5506431,113.4633094,138.4287334
54.5445910,,132.4512314,115.1499956,140.1523517
54.5869840,,133.7798431,115.9474543,141.0774357
54.6228850,,135.1183394,117.1059763,141.8399179
54.6553140,,139.6110729,121.8212827,155.4532434
54.6867450,,141.1945394,122.8869999,156.1524531
54.7196560,,142.9127807,124.0620670,157.6251802
54.7641030,,143.7078870,124.9421746,158.0492464
54.7989860,,141.8661804,122.8886346,156.4286804
54.8328900,,142.6654676,123.5082014,156.5643645
54.8713030,,144.9728381,125.1788773,158.7740909
54.9032270,,144.8592262,124.0081845,149.0806548
54.9321400,,144.9832684,124.2613126,148.2701029
54.9680440,,145.8297366,124.6189463,149.5184397
55.0049460,,146.0786823,125.0618769,149.8470038
55.0508220,,146.1115978,125.1620776,149.9595327
55.0907160,,146.4827292,125.3308635,150.0291578
55.1240830,,146.9017877,125.5167321,150.7708742
55.1565070,,147.0081314,125.8990486,150.8225467
55.1909560,,147.3341695,125.9435340,150.3377926
55.2323670,,147.4155151,125.8227165,151.4150657
55.2670300,,147.4820539,125.8401834,150.3773777
55.2991790,,147.3465138,125.7844346,150.2905968
55.3320910,,147.3591125,125.7552427,151.1395551
55.3691020,,147.6701898,125.6495182,149.4679708
55.4114990,,147.2432305,125.4773958,150.3061573
55.4463920,,147.2652068,125.1791585,149.5802030
55.4793060,,147.0784523,125.0354875,149.5184855
55.5152080,,146.8049539,124.7073711,149.5760440
55.5570950,,146.9570420,124.4193490,148.6256432
55.5905550,,146.4359818,124.3585617,149.3281680
55.6254620,,146.2091061,124.2406964,149.0040684
55.6732110,,146.3811176,124.0719158,147.5451717
55.7071370,,146.1165490,123.9821706,148.2872442
55.7400430,,146.0220773,123.7165849,148.4422640
55.7749420,,145.9816920,123.6608233,148.0725141
55.8098470,,145.7871844,124.1206174,148.9266483
55.8467480,,146.4187560,124.3940453,149.4824012
55.8796610,,146.4187560,124.3940453,149.4824012
55.9145670,,146.7153447,124.4111017,148.8379942
55.9504720,,146.4373795,124.3032787,148.0778689
55.9849970,,146.0697632,123.8897389,148.1874317
56.0218960,,145.1500121,123.1813525,147.4579918
56.0573150,,144.2445255,122.3968529,146.3120139
56.0987170,,143.8863827,122.3781860,146.1586095
56.1391230,,143.9584181,122.1720115,145.6371904
56.1800140,,143.9584181,122.1720115,145.6371904
56.2179160,,144.0807015,122.2827266,145.7645853
56.2663250,,144.0186837,122.0603905,146.5714200
56.3122020,,143.9542551,122.0575579,145.4785439
56.3550860,,143.7802555,122.0002411,145.4386451
56.4229050,,144.0712994,121.8387175,145.7942985
56.4797530,,143.5978785,121.8698168,146.2359571
56.5395940,,143.6369335,121.5135608,145.2173939
56.5984430,,143.6369335,121.5135608,145.2173939
56.6477530,,143.1588717,121.3941056,145.1991924
56.6956310,,143.1761692,121.3210583,145.0829918
56.7463900,,143.1351856,121.1641152,145.0225410
56.7912710,,143.0605858,120.8488697,144.6303476
56.8481160,,142.3634541,120.8940204,143.8825352
56.8990260,,142.1293753,120.5464268,144.7027224
56.9459780,,142.1271269,120.4839572,143.6157632
56.9948610,,141.9848039,120.1412377,143.4230392
57.0392410,,141.6825368,120.1374387,143.5694240
57.0881840,,141.7406698,119.9839965,142.7339965
57.1250850,,141.7775581,119.8418191,142.9856031
57.1714270,,141.7451186,119.8096886,143.2357884
57.2213000,,141.7141003,119.6224048,143.0273109
57.2671780,,141.4938211,119.6867894,142.9310430
57.3145690,,141.7981340,119.7056970,142.9779412
57.3584850,,141.5195872,119.7804004,142.6385937
57.4144970,,141.5818710,119.8476891,142.9445749
57.4544830,,141.6037444,119.8616535,142.8208725
57.5013590,,141.6363075,119.8199456,142.7246663
57.5602000,,141.8924246,119.7736653,142.4179436
57.6514990,,141.7372714,119.8167944,142.3680796
57.6943840,,141.4350593,119.6754202,142.6562654
57.7544030,,141.2330079,119.7053880,142.6683144
57.7912970,,141.2639644,119.8065991,142.0489990
57.8311900,,141.2983811,119.6243203,142.3580079
57.8722080,,141.1351335,119.5395452,141.7760133
57.9142230,,141.1462556,119.4921527,141.6602200
57.9566310,,141.3049926,119.3253213,141.8871725
58.0095110,,140.8994686,119.0951557,142.4406822
58.0580330,,140.7544488,119.1230227,141.9438334
58.1203770,,140.3228497,119.2182402,141.6446490
58.1642610,,140.5234182,118.8487395,141.7356031
58.2056730,,140.5234182,118.8487395,141.7356031
58.2587260,,140.4297454,118.8652373,141.9932650
58.3121170,,140.1779535,118.8182155,141.3280400
58.3605390,,140.4682402,118.6146812,141.3496663
58.4065250,,140.2270761,118.6120860,141.7610603
58.4534080,,140.0950321,118.8677088,141.3004820
58.5042660,,140.2464162,118.9513717,141.0891621
58.5521530,,140.3046218,118.9444513,141.4150395
58.6014910,,140.4801038,119.0370119,142.1420539
58.6469140,,140.5127286,118.9336382,142.3258156
58.6868070,,140.3595526,119.1460084,141.7591448
58.7237210,,140.2792882,119.1728868,141.8644958
58.7685890,,140.3214286,119.0509763,142.3297084
58.8208500,,140.3002966,119.1450816,142.5163742
58.8647340,,140.4904226,119.0808206,141.8978621
58.9086180,,140.4904226,119.0808206,141.8978621
58.9465280,,140.4938828,119.3183391,142.1778300
58.9912920,,140.4682402,119.3623332,142.3227261
59.0463490,,140.6873455,119.3533119,142.4527929
59.0882380,,140.7870119,119.2076742,142.3800049
59.1282370,,140.5105660,119.5317598,142.4148542
59.1811520,,140.9616288,119.3911270,141.7622961
59.2252930,,140.5714286,119.5601211,142.2815744
59.2771670,,140.6557711,119.4364805,142.6697973
59.3270660,,140.8172269,119.4771997,142.8813025
59.3729350,,140.7936851,119.7128646,142.9298690
59.4218050,,140.9294365,119.6937716,143.2985665
59.4607120,,141.2626050,119.8593055,142.3633218
59.5203360,,141.0788433,119.9179436,143.0135937
59.5741910,,140.9096639,120.1065868,142.3963174
59.6130860,,140.9295601,119.9542140,143.1293870
